Comparing Correlations — ExPra Winter 2024
…
Here’s a quick example showing how to calculate this…

Imagine we have the following data, with estimates for group A and group B, from an LMM (lmer()) and a CLMM (clmm).

(I think these data are organised similarly to all the groups I talked to, but let me know if not!)

library(readr)
library(cocor)

results_wide <- read_csv("https://raw.githubusercontent.com/JackEdTaylor/expra-wise24/master/lecture/introduction/example_wide_res.csv")

print(results_wide)

# A tibble: 100 × 5
   item_id   A_LMM  B_LMM  A_CLMM B_CLMM
   <chr>     <dbl>  <dbl>   <dbl>  <dbl>
 1 word_001  0.647 -1.02  -0.198  -0.168
 2 word_002  5.09   3.20  -0.0241  0.397
 3 word_003  1.63   3.53  -0.800  -0.821
 4 word_004  3.43   0.839 -1.98   -1.54 
 5 word_005  1.37   2.48   0.508   0.399
 6 word_006  3.12   2.79   0.691   0.662
 7 word_007 -0.712  0.477 -0.920  -0.716
 8 word_008  2.92   3.00   0.402   0.877
 9 word_009 -1.30  -0.947 -1.01   -1.63 
10 word_010  3.20   2.96   0.142   0.130
# ℹ 90 more rows
…
