Data Visualisation 1 — ExPra Winter 2024
…
library(ggplot2)
library(dplyr)
library(tidyr)
library(readr)

You can import the data we will be using like so:

exp_dat <- read_csv("https://raw.githubusercontent.com/JackEdTaylor/expra-wise24/master/lecture/static/data_vis_dat.csv")

This simulated dataset contains scores in a reading task and a memory task from N=67 participants at three times in the day: morning, midday, and evening.

print(exp_dat)

# A tibble: 201 × 4
   subj_id time    read_score memory_score
   <chr>   <chr>        <dbl>        <dbl>
 1 s01     morning       76.8         67.2
 2 s01     midday        95.7         98.4
 3 s01     evening       94.3         95.0
 4 s02     morning       79.5         54.2
 5 s02     midday        97.2         88.5
 6 s02     evening       98.1         91.1
 7 s03     morning       76.2         69.1
 8 s03     midday        91.1         98.2
 9 s03     evening       85.2         94.9
10 s04     morning       89.5         92.5
# ℹ 191 more rows
…
Combining Data Visualisation with Data Wrangling#

Let’s have another look at the data. Notice that each participant occurs multiple times - we have one row for each combination of subj_id and time.

print(exp_dat)

# A tibble: 201 × 4
   subj_id time    read_score memory_score
   <chr>   <chr>        <dbl>        <dbl>
 1 s01     morning       76.8         67.2
 2 s01     midday        95.7         98.4
 3 s01     evening       94.3         95.0
 4 s02     morning       79.5         54.2
 5 s02     midday        97.2         88.5
 6 s02     evening       98.1         91.1
 7 s03     morning       76.2         69.1
 8 s03     midday        91.1         98.2
 9 s03     evening       85.2         94.9
10 s04     morning       89.5         92.5
# ℹ 191 more rows

Let’s imagine we want to plot the correlation between each participant’s reading scores at different times of day. How would we do this?

The problem is that the reading scores from all times of day are in the same column - we are in Long Format. We can simply pivot our data into Wide Format.

pivot_wider(exp_dat, id_cols=subj_id, names_from=time, values_from=read_score)

# A tibble: 67 × 4
   subj_id morning midday evening
   <chr>     <dbl>  <dbl>   <dbl>
 1 s01        76.8   95.7    94.3
 2 s02        79.5   97.2    98.1
 3 s03        76.2   91.1    85.2
 4 s04        89.5  110.    100. 
 5 s05        76.7  101.    103. 
 6 s06        73.1   92.7    98.4
 7 s07        76.8   99.7    97.0
 8 s08        79.6  108.     99.8
 9 s09        81.6   99.9    99.9
10 s10        68.5  102.     93.2
# ℹ 57 more rows
…
