Data Wrangling 2 — ExPra Winter 2023
…
Pipes#

The pipe operator looks like this: |>. It takes the output of one function, and “pipes” it into the first argument of the next function.

But why would such a thing be useful? Well, here’s some example code to hopefully demonstrate…

data_1 <- starwars
data_2 <- filter(data_1, homeworld != "Alderaan")
data_3 <- mutate(data_2, height_inches = height/2.54)
data_4 <- select(data_3, name, height, height_inches)
data_5 <- arrange(data_4, height)

data_5

# A tibble: 74 × 3
   name                  height height_inches
   <chr>                  <int>         <dbl>
 1 Ratts Tyerel              79          31.1
 2 Wicket Systri Warrick     88          34.6
 3 Dud Bolt                  94          37.0
 4 R2-D2                     96          37.8
 5 R5-D4                     97          38.2
 6 Sebulba                  112          44.1
 7 Gasgano                  122          48.0
 8 Watto                    137          53.9
 9 Mon Mothma               150          59.1
10 Cordé                    157          61.8
# ℹ 64 more rows
…
