Data Wrangling — ExPra Winter 2023
…
Setup Part 2: Check the Packages Load#

Now, we can test that the packages we will be using today actually load. You should be able to run this code without any errors:

library(dplyr)
library(tidyr)

Setup Part 3#

Finally, check that you can access the dataset we’ll be using in this session. The starwars dataset is a dataset built into R that contains details of characters from the Star Wars films:

print(starwars)

# A tibble: 87 × 14
   name     height  mass hair_color skin_color eye_color birth_year sex   gender
   <chr>     <int> <dbl> <chr>      <chr>      <chr>          <dbl> <chr> <chr> 
 1 Luke Sk…    172    77 blond      fair       blue            19   male  mascu…
 2 C-3PO       167    75 NA         gold       yellow         112   none  mascu…
 3 R2-D2        96    32 NA         white, bl… red             33   none  mascu…
 4 Darth V…    202   136 none       white      yellow          41.9 male  mascu…
 5 Leia Or…    150    49 brown      light      brown           19   fema… femin…
 6 Owen La…    178   120 brown, gr… light      blue            52   male  mascu…
 7 Beru Wh…    165    75 brown      light      blue            47   fema… femin…
 8 R5-D4        97    32 NA         white, red red             NA   none  mascu…
 9 Biggs D…    183    84 black      light      brown           24   male  mascu…
10 Obi-Wan…    182    77 auburn, w… fair       blue-gray       57   male  mascu…
# ℹ 77 more rows
# ℹ 5 more variables: homeworld <chr>, species <chr>, films <list>,
#   vehicles <list>, starships <list>

This is snapshot shows an example of tidy data - a philosophy of organising data such that each observation (character) has a single row, with all variables tied to that character as a single column.

Now that we’re all set up, let’s dig into the data…

Arranging#

We can use the arrange() function to sort by variables in the dataframe. For example, we can arrange all characters in order of height (shortest to tallest) like so:

arrange(starwars, height)

# A tibble: 87 × 14
   name     height  mass hair_color skin_color eye_color birth_year sex   gender
   <chr>     <int> <dbl> <chr>      <chr>      <chr>          <dbl> <chr> <chr> 
 1 Yoda         66    17 white      green      brown            896 male  mascu…
 2 Ratts T…     79    15 none       grey, blue unknown           NA male  mascu…
 3 Wicket …     88    20 brown      brown      brown              8 male  mascu…
 4 Dud Bolt     94    45 none       blue, grey yellow            NA male  mascu…
 5 R2-D2        96    32 NA         white, bl… red               33 none  mascu…
 6 R4-P17       96    NA none       silver, r… red, blue         NA none  femin…
 7 R5-D4        97    32 NA         white, red red               NA none  mascu…
 8 Sebulba     112    40 none       grey, red  orange            NA male  mascu…
 9 Gasgano     122    NA none       white, bl… black             NA male  mascu…
10 Watto       137    NA black      blue, grey yellow            NA male  mascu…
# ℹ 77 more rows
# ℹ 5 more variables: homeworld <chr>, species <chr>, films <list>,
#   vehicles <list>, starships <list>

The arrange() function, like most dplyr verb functions, takes the dataframe (starwars) as its first argument, and the variable names (e.g., height) as subsequent arguments.

In height order, we can see that Yoda is the shortest character, at 66 cm, with podracer Ratts Tyerell next shortest, at 79 cm.

We can also arrange the dataframe in descending order, with the desc() function.

arrange(starwars, desc(height))

# A tibble: 87 × 14
   name     height  mass hair_color skin_color eye_color birth_year sex   gender
   <chr>     <int> <dbl> <chr>      <chr>      <chr>          <dbl> <chr> <chr> 
 1 Yarael …    264    NA none       white      yellow          NA   male  mascu…
 2 Tarfful     234   136 brown      brown      blue            NA   male  mascu…
 3 Lama Su     229    88 none       grey       black           NA   male  mascu…
 4 Chewbac…    228   112 brown      unknown    blue           200   male  mascu…
 5 Roos Ta…    224    82 none       grey       orange          NA   male  mascu…
 6 Grievous    216   159 none       brown, wh… green, y…       NA   male  mascu…
 7 Taun We     213    NA none       grey       black           NA   fema… femin…
 8 Rugor N…    206    NA none       green      orange          NA   male  mascu…
 9 Tion Me…    206    80 none       grey       black           NA   male  mascu…
10 Darth V…    202   136 none       white      yellow          41.9 male  mascu…
# ℹ 77 more rows
# ℹ 5 more variables: homeworld <chr>, species <chr>, films <list>,
#   vehicles <list>, starships <list>

This shows us that long-necked Jedi, Yarael Poof, is the tallest character, at 264 cm.

As well as sorting by numeric variables, we can also sort by character variables. For instance, we can sort by hair colour. If we do this we will sort hair alphabetically, from “auburn” to “white”.

arrange(starwars, hair_color)

# A tibble: 87 × 14
   name     height  mass hair_color skin_color eye_color birth_year sex   gender
   <chr>     <int> <dbl> <chr>      <chr>      <chr>          <dbl> <chr> <chr> 
 1 Mon Mot…    150  NA   auburn     fair       blue            48   fema… femin…
 2 Wilhuff…    180  NA   auburn, g… fair       blue            64   male  mascu…
 3 Obi-Wan…    182  77   auburn, w… fair       blue-gray       57   male  mascu…
 4 Biggs D…    183  84   black      light      brown           24   male  mascu…
 5 Boba Fe…    183  78.2 black      fair       brown           31.5 male  mascu…
 6 Lando C…    177  79   black      dark       brown           31   male  mascu…
 7 Watto       137  NA   black      blue, grey yellow          NA   male  mascu…
 8 Quarsh …    183  NA   black      dark       brown           62   male  mascu…
 9 Shmi Sk…    163  NA   black      fair       brown           72   fema… femin…
10 Eeth Ko…    171  NA   black      brown      brown           NA   male  mascu…
# ℹ 77 more rows
# ℹ 5 more variables: homeworld <chr>, species <chr>, films <list>,
#   vehicles <list>, starships <list>

Finally, we can sort by multiple variables at once. For instance, we may want to sort by hair colour alphabetically, and then by height descendingly:

arrange(starwars, hair_color, desc(height))

# A tibble: 87 × 14
   name     height  mass hair_color skin_color eye_color birth_year sex   gender
   <chr>     <int> <dbl> <chr>      <chr>      <chr>          <dbl> <chr> <chr> 
 1 Mon Mot…    150  NA   auburn     fair       blue            48   fema… femin…
 2 Wilhuff…    180  NA   auburn, g… fair       blue            64   male  mascu…
 3 Obi-Wan…    182  77   auburn, w… fair       blue-gray       57   male  mascu…
 4 Bail Pr…    191  NA   black      tan        brown           67   male  mascu…
 5 Gregar …    185  85   black      dark       brown           NA   NA    NA    
 6 Biggs D…    183  84   black      light      brown           24   male  mascu…
 7 Boba Fe…    183  78.2 black      fair       brown           31.5 male  mascu…
 8 Quarsh …    183  NA   black      dark       brown           62   male  mascu…
 9 Jango F…    183  79   black      tan        brown           66   male  mascu…
10 Lando C…    177  79   black      dark       brown           31   male  mascu…
# ℹ 77 more rows
# ℹ 5 more variables: homeworld <chr>, species <chr>, films <list>,
#   vehicles <list>, starships <list>
…
