Analysis — ExPra Winter 2024
…
3: Import the Stimuli#

Next we import the list of stimuli:

stim <- read_csv("stimuli.csv")

stim

# A tibble: 300 × 7
   item_nr condition  text        corr_ans   snd ZipfSUBTLEX word_len
     <dbl> <chr>      <chr>       <chr>    <dbl>       <dbl>    <dbl>
 1       1 word       Akzente     ralt     0.716        2.71        7
 2       1 pseudoword Unwante     lalt     0.534       NA           7
 3       2 word       Drücker     ralt     0.573        3.01        7
 4       2 pseudoword quokker     lalt     0.551       NA           7
 5       3 word       Erwachsener ralt     0.681        3.95       11
 6       3 pseudoword Exzingsener lalt     0.532       NA          11
 7       4 word       Exorzisten  ralt     0.624        2.64       10
 8       4 pseudoword ucinzisten  lalt     0.417       NA          10
 9       5 word       Fabel       ralt     0.634        2.6         5
10       5 pseudoword Pafel       lalt     0.552       NA           5
# ℹ 290 more rows
…
3: Import the Trials#

Let’s import the experiment data from the trials folder:

# first, get a list of all .csv data files
data_paths <- list.files("trials", pattern=".*\\.csv$", full.names=TRUE)

# now, iterate over these with `read_csv()` to import each
trials <- map_df(data_paths, read_csv)

# print the contents
trials

# A tibble: 2,480 × 8
   participant_id item_nr condition  text     is_practice_trial resp  rt_ms
   <chr>            <dbl> <chr>      <chr>    <lgl>             <chr> <dbl>
 1 p171220              4 pseudoword segt     TRUE              lalt   887.
 2 p171220              4 word       sagt     TRUE              ralt   683.
 3 p171220              5 pseudoword tobreren TRUE              lalt   751.
 4 p171220              1 pseudoword Bage     TRUE              lalt   530.
 5 p171220              3 pseudoword Torrerk  TRUE              lalt   551.
 6 p171220              3 word       korrekt  TRUE              ralt   489.
 7 p171220              2 pseudoword sanzes   TRUE              lalt   456.
 8 p171220              2 word       Mannes   TRUE              lalt   565.
 9 p171220              1 word       Haie     TRUE              ralt   633.
10 p171220              5 word       sicheren TRUE              ralt   589.
# ℹ 2,470 more rows
# ℹ 1 more variable: time_so_far_secs <dbl>
…
